%YAML 1.1
%TAG !u! tag:unity3d.com,2011:
--- !u!29 &1
OcclusionCullingSettings:
  m_ObjectHideFlags: 0
  serializedVersion: 2
  m_OcclusionBakeSettings:
    smallestOccluder: 5
    smallestHole: 0.25
    backfaceThreshold: 100
  m_SceneGUID: 00000000000000000000000000000000
  m_OcclusionCullingData: {fileID: 0}
--- !u!104 &2
RenderSettings:
  m_ObjectHideFlags: 0
  serializedVersion: 9
  m_Fog: 0
  m_FogColor: {r: 0.5, g: 0.5, b: 0.5, a: 1}
  m_FogMode: 3
  m_FogDensity: 0.01
  m_LinearFogStart: 0
  m_LinearFogEnd: 300
  m_AmbientSkyColor: {r: 0.212, g: 0.227, b: 0.259, a: 1}
  m_AmbientEquatorColor: {r: 0.114, g: 0.125, b: 0.133, a: 1}
  m_AmbientGroundColor: {r: 0.047, g: 0.043, b: 0.035, a: 1}
  m_AmbientIntensity: 1
  m_AmbientMode: 3
  m_SubtractiveShadowColor: {r: 0.42, g: 0.478, b: 0.627, a: 1}
  m_SkyboxMaterial: {fileID: 0}
  m_HaloStrength: 0.5
  m_FlareStrength: 1
  m_FlareFadeSpeed: 3
  m_HaloTexture: {fileID: 0}
  m_SpotCookie: {fileID: 10001, guid: 0000000000000000e000000000000000, type: 0}
  m_DefaultReflectionMode: 0
  m_DefaultReflectionResolution: 128
  m_ReflectionBounces: 1
  m_ReflectionIntensity: 1
  m_CustomReflection: {fileID: 0}
  m_Sun: {fileID: 0}
  m_IndirectSpecularColor: {r: 0, g: 0, b: 0, a: 1}
  m_UseRadianceAmbientProbe: 0
--- !u!157 &4
LightmapSettings:
  m_ObjectHideFlags: 0
  serializedVersion: 12
  m_GIWorkflowMode: 1
  m_GISettings:
    serializedVersion: 2
    m_BounceScale: 1
    m_IndirectOutputScale: 1
    m_AlbedoBoost: 1
    m_EnvironmentLightingMode: 0
    m_EnableBakedLightmaps: 0
    m_EnableRealtimeLightmaps: 0
  m_LightmapEditorSettings:
    serializedVersion: 12
    m_Resolution: 2
    m_BakeResolution: 40
    m_AtlasSize: 1024
    m_AO: 0
    m_AOMaxDistance: 1
    m_CompAOExponent: 0
    m_CompAOExponentDirect: 0
    m_ExtractAmbientOcclusion: 0
    m_Padding: 2
    m_LightmapParameters: {fileID: 0}
    m_LightmapsBakeMode: 1
    m_TextureCompression: 1
    m_FinalGather: 0
    m_FinalGatherFiltering: 1
    m_FinalGatherRayCount: 1024
    m_ReflectionCompression: 2
    m_MixedBakeMode: 1
    m_BakeBackend: 0
    m_PVRSampling: 1
    m_PVRDirectSampleCount: 32
    m_PVRSampleCount: 512
    m_PVRBounces: 2
    m_PVREnvironmentSampleCount: 512
    m_PVREnvironmentReferencePointCount: 2048
    m_PVRFilteringMode: 0
    m_PVRDenoiserTypeDirect: 0
    m_PVRDenoiserTypeIndirect: 0
    m_PVRDenoiserTypeAO: 0
    m_PVRFilterTypeDirect: 0
    m_PVRFilterTypeIndirect: 0
    m_PVRFilterTypeAO: 0
    m_PVREnvironmentMIS: 0
    m_PVRCulling: 1
    m_PVRFilteringGaussRadiusDirect: 1
    m_PVRFilteringGaussRadiusIndirect: 5
    m_PVRFilteringGaussRadiusAO: 2
    m_PVRFilteringAtrousPositionSigmaDirect: 0.5
    m_PVRFilteringAtrousPositionSigmaIndirect: 2
    m_PVRFilteringAtrousPositionSigmaAO: 1
    m_ExportTrainingData: 0
    m_TrainingDataDestination: TrainingData
    m_LightProbeSampleCountMultiplier: 4
  m_LightingDataAsset: {fileID: 0}
  m_LightingSettings: {fileID: 4890085278179872738, guid: 00219801190bf4545b123dc0c305a2f8, type: 2}
--- !u!196 &5
NavMeshSettings:
  serializedVersion: 2
  m_ObjectHideFlags: 0
  m_BuildSettings:
    serializedVersion: 3
    agentTypeID: 0
    agentRadius: 0.5
    agentHeight: 2
    agentSlope: 45
    agentClimb: 0.4
    ledgeDropHeight: 0
    maxJumpAcrossDistance: 0
    minRegionArea: 2
    manualCellSize: 0
    cellSize: 0.16666667
    manualTileSize: 0
    tileSize: 256
    buildHeightMesh: 0
    maxJobWorkers: 0
    preserveTilesOutsideBounds: 0
    debug:
      m_Flags: 0
  m_NavMeshData: {fileID: 0}
--- !u!1001 &147134
PrefabInstance:
  m_ObjectHideFlags: 0
  serializedVersion: 2
  m_Modification:
    serializedVersion: 3
    m_TransformParent: {fileID: 291380226}
    m_Modifications:
    - target: {fileID: 100000, guid: aad02377ec2684b07baeb4227518e722, type: 3}
      propertyPath: m_Name
      value: jellyFish_tentacle_02
      objectReference: {fileID: 0}
    - target: {fileID: 400000, guid: aad02377ec2684b07baeb4227518e722, type: 3}
      propertyPath: m_RootOrder
      value: 1
      objectReference: {fileID: 0}
    - target: {fileID: 400000, guid: aad02377ec2684b07baeb4227518e722, type: 3}
      propertyPath: m_LocalScale.x
      value: .00876994338
      objectReference: {fileID: 0}
    - target: {fileID: 400000, guid: aad02377ec2684b07baeb4227518e722, type: 3}
      propertyPath: m_LocalScale.y
      value: .00876994338
      objectReference: {fileID: 0}
    - target: {fileID: 400000, guid: aad02377ec2684b07baeb4227518e722, type: 3}
      propertyPath: m_LocalScale.z
      value: .00876994338
      objectReference: {fileID: 0}
    - target: {fileID: 400000, guid: aad02377ec2684b07baeb4227518e722, type: 3}
      propertyPath: m_LocalPosition.x
      value: 0
      objectReference: {fileID: 0}
    - target: {fileID: 400000, guid: aad02377ec2684b07baeb4227518e722, type: 3}
      propertyPath: m_LocalPosition.y
      value: -4.63999987
      objectReference: {fileID: 0}
    - target: {fileID: 400000, guid: aad02377ec2684b07baeb4227518e722, type: 3}
      propertyPath: m_LocalPosition.z
      value: -3.55999994
      objectReference: {fileID: 0}
    - target: {fileID: 400000, guid: aad02377ec2684b07baeb4227518e722, type: 3}
      propertyPath: m_LocalRotation.w
      value: 1
      objectReference: {fileID: 0}
    - target: {fileID: 400000, guid: aad02377ec2684b07baeb4227518e722, type: 3}
      propertyPath: m_LocalRotation.x
      value: 0
      objectReference: {fileID: 0}
    - target: {fileID: 400000, guid: aad02377ec2684b07baeb4227518e722, type: 3}
      propertyPath: m_LocalRotation.y
      value: 0
      objectReference: {fileID: 0}
    - target: {fileID: 400000, guid: aad02377ec2684b07baeb4227518e722, type: 3}
      propertyPath: m_LocalRotation.z
      value: 0
      objectReference: {fileID: 0}
    - target: {fileID: 2300000, guid: aad02377ec2684b07baeb4227518e722, type: 3}
      propertyPath: m_Materials.Array.data[0]
      value: 
      objectReference: {fileID: 2100000, guid: 9dc54d88fd32d46d58abe973934f99aa, type: 2}
    m_RemovedComponents: []
    m_RemovedGameObjects: []
    m_AddedGameObjects: []
    m_AddedComponents: []
  m_SourcePrefab: {fileID: 100100000, guid: aad02377ec2684b07baeb4227518e722, type: 3}
--- !u!4 &147135 stripped
Transform:
  m_CorrespondingSourceObject: {fileID: 400000, guid: aad02377ec2684b07baeb4227518e722, type: 3}
  m_PrefabInstance: {fileID: 147134}
  m_PrefabAsset: {fileID: 0}
--- !u!1001 &88358700
PrefabInstance:
  m_ObjectHideFlags: 0
  serializedVersion: 2
  m_Modification:
    serializedVersion: 3
    m_TransformParent: {fileID: 291380226}
    m_Modifications:
    - target: {fileID: 100000, guid: aad02377ec2684b07baeb4227518e722, type: 3}
      propertyPath: m_Name
      value: jellyFish_tentacle_04
      objectReference: {fileID: 0}
    - target: {fileID: 400000, guid: aad02377ec2684b07baeb4227518e722, type: 3}
      propertyPath: m_RootOrder
      value: 3
      objectReference: {fileID: 0}
    - target: {fileID: 400000, guid: aad02377ec2684b07baeb4227518e722, type: 3}
      propertyPath: m_LocalScale.x
      value: .0246439632
      objectReference: {fileID: 0}
    - target: {fileID: 400000, guid: aad02377ec2684b07baeb4227518e722, type: 3}
      propertyPath: m_LocalScale.y
      value: .012510784
      objectReference: {fileID: 0}
    - target: {fileID: 400000, guid: aad02377ec2684b07baeb4227518e722, type: 3}
      propertyPath: m_LocalScale.z
      value: .012510784
      objectReference: {fileID: 0}
    - target: {fileID: 400000, guid: aad02377ec2684b07baeb4227518e722, type: 3}
      propertyPath: m_LocalPosition.x
      value: 1.47000003
      objectReference: {fileID: 0}
    - target: {fileID: 400000, guid: aad02377ec2684b07baeb4227518e722, type: 3}
      propertyPath: m_LocalPosition.y
      value: -6.44000006
      objectReference: {fileID: 0}
    - target: {fileID: 400000, guid: aad02377ec2684b07baeb4227518e722, type: 3}
      propertyPath: m_LocalPosition.z
      value: .769999981
      objectReference: {fileID: 0}
    - target: {fileID: 400000, guid: aad02377ec2684b07baeb4227518e722, type: 3}
      propertyPath: m_LocalRotation.w
      value: .99784106
      objectReference: {fileID: 0}
    - target: {fileID: 400000, guid: aad02377ec2684b07baeb4227518e722, type: 3}
      propertyPath: m_LocalRotation.x
      value: 9.74230585e-10
      objectReference: {fileID: 0}
    - target: {fileID: 400000, guid: aad02377ec2684b07baeb4227518e722, type: 3}
      propertyPath: m_LocalRotation.y
      value: -1.7125007e-09
      objectReference: {fileID: 0}
    - target: {fileID: 400000, guid: aad02377ec2684b07baeb4227518e722, type: 3}
      propertyPath: m_LocalRotation.z
      value: .0656757504
      objectReference: {fileID: 0}
    - target: {fileID: 2300000, guid: aad02377ec2684b07baeb4227518e722, type: 3}
      propertyPath: m_Materials.Array.data[0]
      value: 
      objectReference: {fileID: 2100000, guid: 48c0e874bc5ec4c2ea885cadf85e7681, type: 2}
    m_RemovedComponents: []
    m_RemovedGameObjects: []
    m_AddedGameObjects: []
    m_AddedComponents: []
  m_SourcePrefab: {fileID: 100100000, guid: aad02377ec2684b07baeb4227518e722, type: 3}
--- !u!4 &88358701 stripped
Transform:
  m_CorrespondingSourceObject: {fileID: 400000, guid: aad02377ec2684b07baeb4227518e722, type: 3}
  m_PrefabInstance: {fileID: 88358700}
  m_PrefabAsset: {fileID: 0}
--- !u!1001 &117957150
PrefabInstance:
  m_ObjectHideFlags: 0
  serializedVersion: 2
  m_Modification:
    serializedVersion: 3
    m_TransformParent: {fileID: 291380226}
    m_Modifications:
    - target: {fileID: 100000, guid: aad02377ec2684b07baeb4227518e722, type: 3}
      propertyPath: m_Name
      value: jellyFish_tentacle_03
      objectReference: {fileID: 0}
    - target: {fileID: 400000, guid: aad02377ec2684b07baeb4227518e722, type: 3}
      propertyPath: m_RootOrder
      value: 2
      objectReference: {fileID: 0}
    - target: {fileID: 400000, guid: aad02377ec2684b07baeb4227518e722, type: 3}
      propertyPath: m_LocalScale.x
      value: .0115763256
      objectReference: {fileID: 0}
    - target: {fileID: 400000, guid: aad02377ec2684b07baeb4227518e722, type: 3}
      propertyPath: m_LocalScale.y
      value: .0115763275
      objectReference: {fileID: 0}
    - target: {fileID: 400000, guid: aad02377ec2684b07baeb4227518e722, type: 3}
      propertyPath: m_LocalScale.z
      value: .0115763275
      objectReference: {fileID: 0}
    - target: {fileID: 400000, guid: aad02377ec2684b07baeb4227518e722, type: 3}
      propertyPath: m_LocalPosition.x
      value: -1.88999999
      objectReference: {fileID: 0}
    - target: {fileID: 400000, guid: aad02377ec2684b07baeb4227518e722, type: 3}
      propertyPath: m_LocalPosition.y
      value: -4.63999987
      objectReference: {fileID: 0}
    - target: {fileID: 400000, guid: aad02377ec2684b07baeb4227518e722, type: 3}
      propertyPath: m_LocalPosition.z
      value: -.839999974
      objectReference: {fileID: 0}
    - target: {fileID: 400000, guid: aad02377ec2684b07baeb4227518e722, type: 3}
      propertyPath: m_LocalRotation.w
      value: 1
      objectReference: {fileID: 0}
    - target: {fileID: 400000, guid: aad02377ec2684b07baeb4227518e722, type: 3}
      propertyPath: m_LocalRotation.x
      value: 0
      objectReference: {fileID: 0}
    - target: {fileID: 400000, guid: aad02377ec2684b07baeb4227518e722, type: 3}
      propertyPath: m_LocalRotation.y
      value: 0
      objectReference: {fileID: 0}
    - target: {fileID: 400000, guid: aad02377ec2684b07baeb4227518e722, type: 3}
      propertyPath: m_LocalRotation.z
      value: 0
      objectReference: {fileID: 0}
    - target: {fileID: 2300000, guid: aad02377ec2684b07baeb4227518e722, type: 3}
      propertyPath: m_Materials.Array.data[0]
      value: 
      objectReference: {fileID: 2100000, guid: fb692234562124b3881fd1de7e5c1c92, type: 2}
    m_RemovedComponents: []
    m_RemovedGameObjects: []
    m_AddedGameObjects: []
    m_AddedComponents: []
  m_SourcePrefab: {fileID: 100100000, guid: aad02377ec2684b07baeb4227518e722, type: 3}
--- !u!4 &117957151 stripped
Transform:
  m_CorrespondingSourceObject: {fileID: 400000, guid: aad02377ec2684b07baeb4227518e722, type: 3}
  m_PrefabInstance: {fileID: 117957150}
  m_PrefabAsset: {fileID: 0}
--- !u!4 &291380226 stripped
Transform:
  m_CorrespondingSourceObject: {fileID: 400000, guid: c3cd37378b5094b829bebef7b81e2bc7, type: 3}
  m_PrefabInstance: {fileID: 1175390069}
  m_PrefabAsset: {fileID: 0}
--- !u!1001 &309772793
PrefabInstance:
  m_ObjectHideFlags: 0
  serializedVersion: 2
  m_Modification:
    serializedVersion: 3
    m_TransformParent: {fileID: 291380226}
    m_Modifications:
    - target: {fileID: 100000, guid: aad02377ec2684b07baeb4227518e722, type: 3}
      propertyPath: m_Name
      value: jellyFish_tentacle_01
      objectReference: {fileID: 0}
    - target: {fileID: 400000, guid: aad02377ec2684b07baeb4227518e722, type: 3}
      propertyPath: m_RootOrder
      value: 0
      objectReference: {fileID: 0}
    - target: {fileID: 400000, guid: aad02377ec2684b07baeb4227518e722, type: 3}
      propertyPath: m_LocalScale.x
      value: .00876994338
      objectReference: {fileID: 0}
    - target: {fileID: 400000, guid: aad02377ec2684b07baeb4227518e722, type: 3}
      propertyPath: m_LocalScale.y
      value: .00876994338
      objectReference: {fileID: 0}
    - target: {fileID: 400000, guid: aad02377ec2684b07baeb4227518e722, type: 3}
      propertyPath: m_LocalScale.z
      value: .00876994338
      objectReference: {fileID: 0}
    - target: {fileID: 400000, guid: aad02377ec2684b07baeb4227518e722, type: 3}
      propertyPath: m_LocalPosition.x
      value: 0
      objectReference: {fileID: 0}
    - target: {fileID: 400000, guid: aad02377ec2684b07baeb4227518e722, type: 3}
      propertyPath: m_LocalPosition.y
      value: -4.63999987
      objectReference: {fileID: 0}
    - target: {fileID: 400000, guid: aad02377ec2684b07baeb4227518e722, type: 3}
      propertyPath: m_LocalPosition.z
      value: .930000007
      objectReference: {fileID: 0}
    - target: {fileID: 400000, guid: aad02377ec2684b07baeb4227518e722, type: 3}
      propertyPath: m_LocalRotation.w
      value: 1
      objectReference: {fileID: 0}
    - target: {fileID: 400000, guid: aad02377ec2684b07baeb4227518e722, type: 3}
      propertyPath: m_LocalRotation.x
      value: 0
      objectReference: {fileID: 0}
    - target: {fileID: 400000, guid: aad02377ec2684b07baeb4227518e722, type: 3}
      propertyPath: m_LocalRotation.y
      value: 0
      objectReference: {fileID: 0}
    - target: {fileID: 400000, guid: aad02377ec2684b07baeb4227518e722, type: 3}
      propertyPath: m_LocalRotation.z
      value: 0
      objectReference: {fileID: 0}
    m_RemovedComponents: []
    m_RemovedGameObjects: []
    m_AddedGameObjects: []
    m_AddedComponents: []
  m_SourcePrefab: {fileID: 100100000, guid: aad02377ec2684b07baeb4227518e722, type: 3}
--- !u!4 &309772794 stripped
Transform:
  m_CorrespondingSourceObject: {fileID: 400000, guid: aad02377ec2684b07baeb4227518e722, type: 3}
  m_PrefabInstance: {fileID: 309772793}
  m_PrefabAsset: {fileID: 0}
--- !u!1001 &616649821
PrefabInstance:
  m_ObjectHideFlags: 0
  serializedVersion: 2
  m_Modification:
    serializedVersion: 3
    m_TransformParent: {fileID: 291380226}
    m_Modifications:
    - target: {fileID: 100000, guid: aad02377ec2684b07baeb4227518e722, type: 3}
      propertyPath: m_Name
      value: jellyFish_tentacle_05
      objectReference: {fileID: 0}
    - target: {fileID: 400000, guid: aad02377ec2684b07baeb4227518e722, type: 3}
      propertyPath: m_RootOrder
      value: 4
      objectReference: {fileID: 0}
    - target: {fileID: 400000, guid: aad02377ec2684b07baeb4227518e722, type: 3}
      propertyPath: m_LocalScale.x
      value: .00933488552
      objectReference: {fileID: 0}
    - target: {fileID: 400000, guid: aad02377ec2684b07baeb4227518e722, type: 3}
      propertyPath: m_LocalScale.y
      value: .00666530151
      objectReference: {fileID: 0}
    - target: {fileID: 400000, guid: aad02377ec2684b07baeb4227518e722, type: 3}
      propertyPath: m_LocalScale.z
      value: .00666530151
      objectReference: {fileID: 0}
    - target: {fileID: 400000, guid: aad02377ec2684b07baeb4227518e722, type: 3}
      propertyPath: m_LocalPosition.x
      value: -1.60000002
      objectReference: {fileID: 0}
    - target: {fileID: 400000, guid: aad02377ec2684b07baeb4227518e722, type: 3}
      propertyPath: m_LocalPosition.y
      value: -3.95000005
      objectReference: {fileID: 0}
    - target: {fileID: 400000, guid: aad02377ec2684b07baeb4227518e722, type: 3}
      propertyPath: m_LocalPosition.z
      value: 1.25999999
      objectReference: {fileID: 0}
    - target: {fileID: 400000, guid: aad02377ec2684b07baeb4227518e722, type: 3}
      propertyPath: m_LocalRotation.w
      value: .9990412
      objectReference: {fileID: 0}
    - target: {fileID: 400000, guid: aad02377ec2684b07baeb4227518e722, type: 3}
      propertyPath: m_LocalRotation.x
      value: -4.63604766e-10
      objectReference: {fileID: 0}
    - target: {fileID: 400000, guid: aad02377ec2684b07baeb4227518e722, type: 3}
      propertyPath: m_LocalRotation.y
      value: -1.32626388e-09
      objectReference: {fileID: 0}
    - target: {fileID: 400000, guid: aad02377ec2684b07baeb4227518e722, type: 3}
      propertyPath: m_LocalRotation.z
      value: -.0437805243
      objectReference: {fileID: 0}
    - target: {fileID: 2300000, guid: aad02377ec2684b07baeb4227518e722, type: 3}
      propertyPath: m_Materials.Array.data[0]
      value: 
      objectReference: {fileID: 2100000, guid: 2ea9ba285aeea421da3749ee2ce96c33, type: 2}
    m_RemovedComponents: []
    m_RemovedGameObjects: []
    m_AddedGameObjects: []
    m_AddedComponents: []
  m_SourcePrefab: {fileID: 100100000, guid: aad02377ec2684b07baeb4227518e722, type: 3}
--- !u!4 &616649822 stripped
Transform:
  m_CorrespondingSourceObject: {fileID: 400000, guid: aad02377ec2684b07baeb4227518e722, type: 3}
  m_PrefabInstance: {fileID: 616649821}
  m_PrefabAsset: {fileID: 0}
--- !u!1 &889417434
GameObject:
  m_ObjectHideFlags: 0
  m_CorrespondingSourceObject: {fileID: 0}
  m_PrefabInstance: {fileID: 0}
  m_PrefabAsset: {fileID: 0}
  serializedVersion: 6
  m_Component:
  - component: {fileID: 889417439}
  - component: {fileID: 889417438}
  - component: {fileID: 889417436}
  - component: {fileID: 889417435}
  m_Layer: 0
  m_Name: Main Camera
  m_TagString: MainCamera
  m_Icon: {fileID: 0}
  m_NavMeshLayer: 0
  m_StaticEditorFlags: 0
  m_IsActive: 1
--- !u!81 &889417435
AudioListener:
  m_ObjectHideFlags: 0
  m_CorrespondingSourceObject: {fileID: 0}
  m_PrefabInstance: {fileID: 0}
  m_PrefabAsset: {fileID: 0}
  m_GameObject: {fileID: 889417434}
  m_Enabled: 1
--- !u!124 &889417436
Behaviour:
  m_ObjectHideFlags: 0
  m_CorrespondingSourceObject: {fileID: 0}
  m_PrefabInstance: {fileID: 0}
  m_PrefabAsset: {fileID: 0}
  m_GameObject: {fileID: 889417434}
  m_Enabled: 1
--- !u!20 &889417438
Camera:
  m_ObjectHideFlags: 0
  m_CorrespondingSourceObject: {fileID: 0}
  m_PrefabInstance: {fileID: 0}
  m_PrefabAsset: {fileID: 0}
  m_GameObject: {fileID: 889417434}
  m_Enabled: 1
  serializedVersion: 2
  m_ClearFlags: 1
  m_BackGroundColor: {r: 0.03292605, g: 0.0801705, b: 0.1544118, a: 0.019607844}
  m_projectionMatrixMode: 1
  m_GateFitMode: 2
  m_FOVAxisMode: 0
  m_Iso: 200
  m_ShutterSpeed: 0.005
  m_Aperture: 16
  m_FocusDistance: 10
  m_FocalLength: 50
  m_BladeCount: 5
  m_Curvature: {x: 2, y: 11}
  m_BarrelClipping: 0.25
  m_Anamorphism: 0
  m_SensorSize: {x: 36, y: 24}
  m_LensShift: {x: 0, y: 0}
  m_NormalizedViewPortRect:
    serializedVersion: 2
    x: 0
    y: 0
    width: 1
    height: 1
  near clip plane: 0.3
  far clip plane: 1000
  field of view: 60
  orthographic: 0
  orthographic size: 5
  m_Depth: -1
  m_CullingMask:
    serializedVersion: 2
    m_Bits: 4294967295
  m_RenderingPath: -1
  m_TargetTexture: {fileID: 0}
  m_TargetDisplay: 0
  m_TargetEye: 3
  m_HDR: 0
  m_AllowMSAA: 1
  m_AllowDynamicResolution: 0
  m_ForceIntoRT: 0
  m_OcclusionCulling: 1
  m_StereoConvergence: 10
  m_StereoSeparation: 0.022
--- !u!4 &889417439
Transform:
  m_ObjectHideFlags: 0
  m_CorrespondingSourceObject: {fileID: 0}
  m_PrefabInstance: {fileID: 0}
  m_PrefabAsset: {fileID: 0}
  m_GameObject: {fileID: 889417434}
  serializedVersion: 2
  m_LocalRotation: {x: 0.12955461, y: 0, z: 0, w: 0.9915723}
  m_LocalPosition: {x: -9.98, y: 3.68, z: -25.85}
  m_LocalScale: {x: 1, y: 1, z: 1}
  m_ConstrainProportionsScale: 0
  m_Children: []
  m_Father: {fileID: 0}
  m_LocalEulerAnglesHint: {x: 0, y: 0, z: 0}
--- !u!1001 &1087441207
PrefabInstance:
  m_ObjectHideFlags: 0
  serializedVersion: 2
  m_Modification:
    serializedVersion: 3
    m_TransformParent: {fileID: 291380226}
    m_Modifications:
    - target: {fileID: 100000, guid: aad02377ec2684b07baeb4227518e722, type: 3}
      propertyPath: m_Name
      value: jellyFish_tentacle_07
      objectReference: {fileID: 0}
    - target: {fileID: 400000, guid: aad02377ec2684b07baeb4227518e722, type: 3}
      propertyPath: m_RootOrder
      value: 6
      objectReference: {fileID: 0}
    - target: {fileID: 400000, guid: aad02377ec2684b07baeb4227518e722, type: 3}
      propertyPath: m_LocalScale.x
      value: .0092276223
      objectReference: {fileID: 0}
    - target: {fileID: 400000, guid: aad02377ec2684b07baeb4227518e722, type: 3}
      propertyPath: m_LocalScale.y
      value: .0092276223
      objectReference: {fileID: 0}
    - target: {fileID: 400000, guid: aad02377ec2684b07baeb4227518e722, type: 3}
      propertyPath: m_LocalScale.z
      value: .0092276223
      objectReference: {fileID: 0}
    - target: {fileID: 400000, guid: aad02377ec2684b07baeb4227518e722, type: 3}
      propertyPath: m_LocalPosition.x
      value: -3.44000006
      objectReference: {fileID: 0}
    - target: {fileID: 400000, guid: aad02377ec2684b07baeb4227518e722, type: 3}
      propertyPath: m_LocalPosition.y
      value: -5.19000006
      objectReference: {fileID: 0}
    - target: {fileID: 400000, guid: aad02377ec2684b07baeb4227518e722, type: 3}
      propertyPath: m_LocalPosition.z
      value: -.839999974
      objectReference: {fileID: 0}
    - target: {fileID: 400000, guid: aad02377ec2684b07baeb4227518e722, type: 3}
      propertyPath: m_LocalRotation.w
      value: .992513061
      objectReference: {fileID: 0}
    - target: {fileID: 400000, guid: aad02377ec2684b07baeb4227518e722, type: 3}
      propertyPath: m_LocalRotation.x
      value: 0
      objectReference: {fileID: 0}
    - target: {fileID: 400000, guid: aad02377ec2684b07baeb4227518e722, type: 3}
      propertyPath: m_LocalRotation.y
      value: 0
      objectReference: {fileID: 0}
    - target: {fileID: 400000, guid: aad02377ec2684b07baeb4227518e722, type: 3}
      propertyPath: m_LocalRotation.z
      value: -.122138925
      objectReference: {fileID: 0}
    - target: {fileID: 2300000, guid: aad02377ec2684b07baeb4227518e722, type: 3}
      propertyPath: m_Materials.Array.data[0]
      value: 
      objectReference: {fileID: 2100000, guid: caac0df3fe3534c80ac5103a7a550a43, type: 2}
    m_RemovedComponents: []
    m_RemovedGameObjects: []
    m_AddedGameObjects: []
    m_AddedComponents: []
  m_SourcePrefab: {fileID: 100100000, guid: aad02377ec2684b07baeb4227518e722, type: 3}
--- !u!4 &1087441208 stripped
Transform:
  m_CorrespondingSourceObject: {fileID: 400000, guid: aad02377ec2684b07baeb4227518e722, type: 3}
  m_PrefabInstance: {fileID: 1087441207}
  m_PrefabAsset: {fileID: 0}
--- !u!1001 &1175390069
PrefabInstance:
  m_ObjectHideFlags: 0
  serializedVersion: 2
  m_Modification:
    serializedVersion: 3
    m_TransformParent: {fileID: 0}
    m_Modifications:
    - target: {fileID: 400000, guid: c3cd37378b5094b829bebef7b81e2bc7, type: 3}
      propertyPath: m_RootOrder
      value: 1
      objectReference: {fileID: 0}
    - target: {fileID: 400000, guid: c3cd37378b5094b829bebef7b81e2bc7, type: 3}
      propertyPath: m_LocalPosition.x
      value: -10.5375557
      objectReference: {fileID: 0}
    - target: {fileID: 400000, guid: c3cd37378b5094b829bebef7b81e2bc7, type: 3}
      propertyPath: m_LocalPosition.y
      value: 0
      objectReference: {fileID: 0}
    - target: {fileID: 400000, guid: c3cd37378b5094b829bebef7b81e2bc7, type: 3}
      propertyPath: m_LocalPosition.z
      value: .000390625006
      objectReference: {fileID: 0}
    - target: {fileID: 400000, guid: c3cd37378b5094b829bebef7b81e2bc7, type: 3}
      propertyPath: m_LocalRotation.w
      value: -.0403291062
      objectReference: {fileID: 0}
    - target: {fileID: 400000, guid: c3cd37378b5094b829bebef7b81e2bc7, type: 3}
      propertyPath: m_LocalRotation.x
      value: 0
      objectReference: {fileID: 0}
    - target: {fileID: 400000, guid: c3cd37378b5094b829bebef7b81e2bc7, type: 3}
      propertyPath: m_LocalRotation.y
      value: -.999186516
      objectReference: {fileID: 0}
    - target: {fileID: 400000, guid: c3cd37378b5094b829bebef7b81e2bc7, type: 3}
      propertyPath: m_LocalRotation.z
      value: 0
      objectReference: {fileID: 0}
    m_RemovedComponents: []
    m_RemovedGameObjects: []
    m_AddedGameObjects:
    - targetCorrespondingSourceObject: {fileID: 400000, guid: c3cd37378b5094b829bebef7b81e2bc7, type: 3}
      insertIndex: -1
      addedObject: {fileID: 309772794}
    - targetCorrespondingSourceObject: {fileID: 400000, guid: c3cd37378b5094b829bebef7b81e2bc7, type: 3}
      insertIndex: -1
      addedObject: {fileID: 147135}
    - targetCorrespondingSourceObject: {fileID: 400000, guid: c3cd37378b5094b829bebef7b81e2bc7, type: 3}
      insertIndex: -1
      addedObject: {fileID: 117957151}
    - targetCorrespondingSourceObject: {fileID: 400000, guid: c3cd37378b5094b829bebef7b81e2bc7, type: 3}
      insertIndex: -1
      addedObject: {fileID: 88358701}
    - targetCorrespondingSourceObject: {fileID: 400000, guid: c3cd37378b5094b829bebef7b81e2bc7, type: 3}
      insertIndex: -1
      addedObject: {fileID: 616649822}
    - targetCorrespondingSourceObject: {fileID: 400000, guid: c3cd37378b5094b829bebef7b81e2bc7, type: 3}
      insertIndex: -1
      addedObject: {fileID: 1368754555}
    - targetCorrespondingSourceObject: {fileID: 400000, guid: c3cd37378b5094b829bebef7b81e2bc7, type: 3}
      insertIndex: -1
      addedObject: {fileID: 1087441208}
    - targetCorrespondingSourceObject: {fileID: 400000, guid: c3cd37378b5094b829bebef7b81e2bc7, type: 3}
      insertIndex: -1
      addedObject: {fileID: 1676618812}
    m_AddedComponents: []
  m_SourcePrefab: {fileID: 100100000, guid: c3cd37378b5094b829bebef7b81e2bc7, type: 3}
--- !u!1001 &1368754554
PrefabInstance:
  m_ObjectHideFlags: 0
  serializedVersion: 2
  m_Modification:
    serializedVersion: 3
    m_TransformParent: {fileID: 291380226}
    m_Modifications:
    - target: {fileID: 100000, guid: aad02377ec2684b07baeb4227518e722, type: 3}
      propertyPath: m_Name
      value: jellyFish_tentacle_06
      objectReference: {fileID: 0}
    - target: {fileID: 400000, guid: aad02377ec2684b07baeb4227518e722, type: 3}
      propertyPath: m_RootOrder
      value: 5
      objectReference: {fileID: 0}
    - target: {fileID: 400000, guid: aad02377ec2684b07baeb4227518e722, type: 3}
      propertyPath: m_LocalScale.x
      value: .00778013561
      objectReference: {fileID: 0}
    - target: {fileID: 400000, guid: aad02377ec2684b07baeb4227518e722, type: 3}
      propertyPath: m_LocalScale.y
      value: .00778013607
      objectReference: {fileID: 0}
    - target: {fileID: 400000, guid: aad02377ec2684b07baeb4227518e722, type: 3}
      propertyPath: m_LocalScale.z
      value: .00778013607
      objectReference: {fileID: 0}
    - target: {fileID: 400000, guid: aad02377ec2684b07baeb4227518e722, type: 3}
      propertyPath: m_LocalPosition.x
      value: 3.32999992
      objectReference: {fileID: 0}
    - target: {fileID: 400000, guid: aad02377ec2684b07baeb4227518e722, type: 3}
      propertyPath: m_LocalPosition.y
      value: -4.61999989
      objectReference: {fileID: 0}
    - target: {fileID: 400000, guid: aad02377ec2684b07baeb4227518e722, type: 3}
      propertyPath: m_LocalPosition.z
      value: -.839999974
      objectReference: {fileID: 0}
    - target: {fileID: 400000, guid: aad02377ec2684b07baeb4227518e722, type: 3}
      propertyPath: m_LocalRotation.w
      value: .991071939
      objectReference: {fileID: 0}
    - target: {fileID: 400000, guid: aad02377ec2684b07baeb4227518e722, type: 3}
      propertyPath: m_LocalRotation.x
      value: 0
      objectReference: {fileID: 0}
    - target: {fileID: 400000, guid: aad02377ec2684b07baeb4227518e722, type: 3}
      propertyPath: m_LocalRotation.y
      value: 0
      objectReference: {fileID: 0}
    - target: {fileID: 400000, guid: aad02377ec2684b07baeb4227518e722, type: 3}
      propertyPath: m_LocalRotation.z
      value: .133328736
      objectReference: {fileID: 0}
    - target: {fileID: 2300000, guid: aad02377ec2684b07baeb4227518e722, type: 3}
      propertyPath: m_Materials.Array.data[0]
      value: 
      objectReference: {fileID: 2100000, guid: e9609d255e4fd4ab99664e97f856a5fd, type: 2}
    m_RemovedComponents: []
    m_RemovedGameObjects: []
    m_AddedGameObjects: []
    m_AddedComponents: []
  m_SourcePrefab: {fileID: 100100000, guid: aad02377ec2684b07baeb4227518e722, type: 3}
--- !u!4 &1368754555 stripped
Transform:
  m_CorrespondingSourceObject: {fileID: 400000, guid: aad02377ec2684b07baeb4227518e722, type: 3}
  m_PrefabInstance: {fileID: 1368754554}
  m_PrefabAsset: {fileID: 0}
--- !u!1001 &1676618811
PrefabInstance:
  m_ObjectHideFlags: 0
  serializedVersion: 2
  m_Modification:
    serializedVersion: 3
    m_TransformParent: {fileID: 291380226}
    m_Modifications:
    - target: {fileID: 100000, guid: aad02377ec2684b07baeb4227518e722, type: 3}
      propertyPath: m_Name
      value: jellyFish_tentacle_08
      objectReference: {fileID: 0}
    - target: {fileID: 400000, guid: aad02377ec2684b07baeb4227518e722, type: 3}
      propertyPath: m_RootOrder
      value: 7
      objectReference: {fileID: 0}
    - target: {fileID: 400000, guid: aad02377ec2684b07baeb4227518e722, type: 3}
      propertyPath: m_LocalScale.x
      value: .012510783
      objectReference: {fileID: 0}
    - target: {fileID: 400000, guid: aad02377ec2684b07baeb4227518e722, type: 3}
      propertyPath: m_LocalScale.y
      value: .012510784
      objectReference: {fileID: 0}
    - target: {fileID: 400000, guid: aad02377ec2684b07baeb4227518e722, type: 3}
      propertyPath: m_LocalScale.z
      value: .012510784
      objectReference: {fileID: 0}
    - target: {fileID: 400000, guid: aad02377ec2684b07baeb4227518e722, type: 3}
      propertyPath: m_LocalPosition.x
      value: -.829999983
      objectReference: {fileID: 0}
    - target: {fileID: 400000, guid: aad02377ec2684b07baeb4227518e722, type: 3}
      propertyPath: m_LocalPosition.y
      value: -6.53000021
      objectReference: {fileID: 0}
    - target: {fileID: 400000, guid: aad02377ec2684b07baeb4227518e722, type: 3}
      propertyPath: m_LocalPosition.z
      value: -.839999974
      objectReference: {fileID: 0}
    - target: {fileID: 400000, guid: aad02377ec2684b07baeb4227518e722, type: 3}
      propertyPath: m_LocalRotation.w
      value: 1
      objectReference: {fileID: 0}
    - target: {fileID: 400000, guid: aad02377ec2684b07baeb4227518e722, type: 3}
      propertyPath: m_LocalRotation.x
      value: 0
      objectReference: {fileID: 0}
    - target: {fileID: 400000, guid: aad02377ec2684b07baeb4227518e722, type: 3}
      propertyPath: m_LocalRotation.y
      value: 0
      objectReference: {fileID: 0}
    - target: {fileID: 400000, guid: aad02377ec2684b07baeb4227518e722, type: 3}
      propertyPath: m_LocalRotation.z
      value: 0
      objectReference: {fileID: 0}
    - target: {fileID: 2300000, guid: aad02377ec2684b07baeb4227518e722, type: 3}
      propertyPath: m_Materials.Array.data[0]
      value: 
      objectReference: {fileID: 2100000, guid: aa565d6a8fd6e44df86f881bee3c8a2b, type: 2}
    m_RemovedComponents: []
    m_RemovedGameObjects: []
    m_AddedGameObjects: []
    m_AddedComponents: []
  m_SourcePrefab: {fileID: 100100000, guid: aad02377ec2684b07baeb4227518e722, type: 3}
--- !u!4 &1676618812 stripped
Transform:
  m_CorrespondingSourceObject: {fileID: 400000, guid: aad02377ec2684b07baeb4227518e722, type: 3}
  m_PrefabInstance: {fileID: 1676618811}
  m_PrefabAsset: {fileID: 0}
--- !u!1660057539 &9223372036854775807
SceneRoots:
  m_ObjectHideFlags: 0
  m_Roots:
  - {fileID: 889417439}
  - {fileID: 1175390069}
